%YAML 1.1
%TAG !u! tag:unity3d.com,2011:
--- !u!221 &22100000
AnimatorOverrideController:
  m_ObjectHideFlags: 0
  m_PrefabParentObject: {fileID: 0}
  m_PrefabInternal: {fileID: 0}
  m_Name: Enemy Strong
  m_Controller: {fileID: 9100000, guid: 8923f06dabfd4774db7958d3d06c7e97, type: 2}
  m_Clips:
  - m_OriginalClip: {fileID: 7400000, guid: b4a9a18eef54d254a8bbf4ac0422081d, type: 2}
    m_OverrideClip: {fileID: 7400000, guid: 53b80d141f515cf41a890600b75e8961, type: 2}
  - m_OriginalClip: {fileID: 7400000, guid: d201848950f8595449c07fdcedac07e4, type: 2}
    m_OverrideClip: {fileID: 7400000, guid: 329ce996e8a946746abca6deab2d17d9, type: 2}
