%YAML 1.1
%TAG !u! tag:unity3d.com,2011:
--- !u!78 &1
TagManager:
  serializedVersion: 2
  tags:
  - Exit
  - Fruit
  - Soda
  - Tree
  layers:
  - Default
  - TransparentFX
  - Ignore Raycast
  - 
  - Water
  - UI
  - 
  - 
  - Collision
  - 
  - 
  - 
  - 
  - 
  - 
  - 
  - 
  - 
  - 
  - 
  - 
  - 
  - 
  - 
  - 
  - 
  - 
  - 
  - 
  - 
  - 
  - 
  m_SortingLayers:
  - name: Default
    uniqueID: 0
    locked: 0
  - name: Floor
    uniqueID: 2467670319
    locked: 0
  - name: Obstacles
    uniqueID: 1919105985
    locked: 0
  - name: Food
    uniqueID: 3352458925
    locked: 0
  - name: Characters
    uniqueID: 2971423693
    locked: 0
  - name: 
    uniqueID: 3203858369
    locked: 0
